name;kind
comp01;component
comp02;component
comp03;component
comp04;component
comp05;component
comp06;component
comp07;component
comp08;component
comp09;component
comp10;component
comp11;component
comp12;component
attr01;attribute
attr02;attribute
attr03;attribute
attr04;attribute
attr05;attribute
attr06;attribute
attr07;attribute
attr08;attribute
attr09;attribute
attr10;attribute
